[{"id_user":1,"first_name":"Marion","last_name":"Salasar","email":"msalasar0@chron.com","password":"2hm1TL5u","account":[{"id_account":1,"iban":"BE13 0796 6103 4137","saldo":402519.37},{"id_account":2,"iban":"GT59 FBUI DIES AKZ0 PEZO ZHIN BL3L","saldo":642402.44}]},
{"id_user":2,"first_name":"Alene","last_name":"Kensitt","email":"akensitt1@patch.com","password":"Vf4BKiOel","account":[{"id_account":1,"iban":"FR07 6446 8957 59TK UBCO YSUK L64","saldo":145274.46},{"id_account":2,"iban":"BE69 0319 7237 0423","saldo":940454.83},{"id_account":3,"iban":"SE59 9823 8999 8985 3238 2525","saldo":528534.83},{"id_account":4,"iban":"MU43 JWSG 8818 7520 2169 0218 568Q BX","saldo":62663.44},{"id_account":5,"iban":"AD38 1652 5459 SKG1 L8OV VOOI","saldo":805570.03}]},
{"id_user":3,"first_name":"Sydelle","last_name":"Bresnahan","email":"sbresnahan2@ovh.net","password":"XvQugS0n7cuP","account":[{"id_account":1,"iban":"SA04 59NM R9GP EDFX JYLI WVT2","saldo":392149.64},{"id_account":2,"iban":"ES78 2881 8640 8280 0285 4753","saldo":323738.72},{"id_account":3,"iban":"EE63 4400 4736 3375 8568","saldo":35558.9},{"id_account":4,"iban":"AL75 3767 4636 LFZS WLFJ 7HGF CN6U","saldo":584886.7}]},
{"id_user":4,"first_name":"Devland","last_name":"Sigfrid","email":"dsigfrid3@java.com","password":"EMkAdMB3KWr","account":[{"id_account":1,"iban":"FR27 6552 4478 37U5 HIY9 NBB0 D19","saldo":633775.13},{"id_account":2,"iban":"RS43 7624 2706 0488 4283 57","saldo":771056.83},{"id_account":3,"iban":"SK88 2461 0789 5738 6331 4686","saldo":469878.96}]},
{"id_user":5,"first_name":"Stefan","last_name":"Coates","email":"scoates4@google.com","password":"CRkcQA","account":[{"id_account":1,"iban":"CY24 9657 8867 H1LT PJNH 2EF2 5O5W","saldo":811271.6},{"id_account":2,"iban":"FR19 1571 7689 43TX S1SB 6UE5 T72","saldo":882233.0},{"id_account":3,"iban":"FO29 8375 3409 4682 02","saldo":940878.09}]},
{"id_user":6,"first_name":"Franz","last_name":"Elliott","email":"felliott5@lycos.com","password":"X9Icn8t","account":[{"id_account":1,"iban":"FI74 6407 5216 9343 02","saldo":123369.77}]},
{"id_user":7,"first_name":"Son","last_name":"Toplin","email":"stoplin6@elpais.com","password":"Uscb7mj","account":[{"id_account":1,"iban":"MK92 6188 K4OR LMKH R35","saldo":28201.87},{"id_account":2,"iban":"MR55 9269 1428 8772 2530 5792 242","saldo":222465.92},{"id_account":3,"iban":"TR40 7222 9EX9 LKLW HKI9 OUKB AQ","saldo":3619.76},{"id_account":4,"iban":"HU92 3357 4526 6689 3393 5339 0298","saldo":170976.4},{"id_account":5,"iban":"LV58 WYON RBFT MVN6 A0FC E","saldo":317961.32}]},
{"id_user":8,"first_name":"Mariette","last_name":"Jeannel","email":"mjeannel7@e-recht24.de","password":"3lieeyP","account":[{"id_account":1,"iban":"FR84 0764 5233 12V5 6XS8 USMR S27","saldo":687886.31},{"id_account":2,"iban":"AE55 6107 5640 5975 1421 164","saldo":877205.27}]},
{"id_user":9,"first_name":"Phaedra","last_name":"Screen","email":"pscreen8@imageshack.us","password":"7BXzZ4dc8","account":[{"id_account":1,"iban":"KW44 NLDY T5Y4 TOZT XU2G MZFJ RDDO WX","saldo":493557.53},{"id_account":2,"iban":"SA51 41NL P3H8 FX5C DILQ HO1Q","saldo":788881.78},{"id_account":3,"iban":"FR90 9932 4824 1829 E5YJ GQEA A43","saldo":568135.25},{"id_account":4,"iban":"DO46 KSGE 2220 7800 7433 8126 9253","saldo":11833.18},{"id_account":5,"iban":"NO38 8772 4802 999","saldo":33300.55}]},
{"id_user":10,"first_name":"Odelle","last_name":"Kintzel","email":"okintzel9@ezinearticles.com","password":"Dh0MUU4cc","account":[{"id_account":1,"iban":"MU09 FAEI 8369 5209 8626 5588 161E UZ","saldo":61481.26},{"id_account":2,"iban":"IE46 ZSKM 7936 2129 0319 56","saldo":466078.63}]}]